Räumliche Daten und R – Part 2 – Marco Sciaini
…
```r
data("incongruent", "aggregating_zones", package = "spData")
incongr_wgs = st_transform(incongruent, "EPSG:4326")
aggzone_wgs = st_transform(aggregating_zones, "EPSG:4326")
```

<img src="10-part3_files/figure-html/unnamed-chunk-11-1.png" width="504" style="display: block; margin: auto;" />

---

```r
qgis_algo = qgis_algorithms()
qgis_algo
## # A tibble: 1,011 × 27
##    provider provider_title algorithm    algorithm_id algorithm_title provider_id
##    <chr>    <chr>          <chr>        <chr>        <chr>           <chr>      
##  1 3d       QGIS (3D)      3d:tessella… tessellate   Tessellate      3d         
##  2 gdal     GDAL           gdal:aspect  aspect       Aspect          gdal       
##  3 gdal     GDAL           gdal:assign… assignproje… Assign project… gdal       
##  4 gdal     GDAL           gdal:buffer… buffervecto… Buffer vectors  gdal       
##  5 gdal     GDAL           gdal:buildv… buildvirtua… Build virtual … gdal       
##  6 gdal     GDAL           gdal:buildv… buildvirtua… Build virtual … gdal       
##  7 gdal     GDAL           gdal:clipra… cliprasterb… Clip raster by… gdal       
##  8 gdal     GDAL           gdal:clipra… cliprasterb… Clip raster by… gdal       
##  9 gdal     GDAL           gdal:clipve… clipvectorb… Clip vector by… gdal       
## 10 gdal     GDAL           gdal:clipve… clipvectorb… Clip vector by… gdal       
## # … with 1,001 more rows, and 21 more variables: can_cancel <lgl>,
## #   deprecated <lgl>, group <chr>, has_known_issues <lgl>, help_url <chr>,
## #   name <chr>, requires_matching_crs <lgl>, short_description <chr>,
## #   tags <list>, provider_can_be_activated <lgl>,
## #   default_raster_file_extension <chr>, default_vector_file_extension <chr>,
## #   provider_is_active <lgl>, provider_long_name <chr>, provider_name <chr>,
## #   supported_output_raster_extensions <list>, …
```
…
---

```r
union_sf = st_as_sf(union)
union_sf
## Simple feature collection with 22 features and 6 fields
## Geometry type: MULTIPOLYGON
## Dimension:     XY
## Bounding box:  xmin: -1.732324 ymin: 53.88903 xmax: -1.651969 ymax: 53.91912
## Geodetic CRS:  WGS 84
## # A tibble: 22 × 7
##    level     value fid_2 geo_code geo_label geo_labelw                      geom
##    <chr>     <dbl> <dbl> <chr>    <chr>     <chr>             <MULTIPOLYGON [°]>
##  1 Incongru…  4.04     1 E020023… Leeds 003 <NA>       (((-1.684818 53.91045, -…
##  2 Incongru…  4.04     2 E020023… Leeds 004 <NA>       (((-1.690975 53.90831, -…
##  3 Incongru…  5.01     1 E020023… Leeds 003 <NA>       (((-1.715661 53.91356, -…
##  4 Incongru…  5.01     2 E020023… Leeds 004 <NA>       (((-1.695207 53.90847, -…
##  5 Incongru…  4.93     1 E020023… Leeds 003 <NA>       (((-1.697137 53.91318, -…
##  6 Incongru…  5.12     1 E020023… Leeds 003 <NA>       (((-1.701014 53.9046, -1…
##  7 Incongru…  5.12     2 E020023… Leeds 004 <NA>       (((-1.691367 53.89463, -…
##  8 Incongru…  6.55     2 E020023… Leeds 004 <NA>       (((-1.689801 53.90366, -…
##  9 Incongru…  3.75     2 E020023… Leeds 004 <NA>       (((-1.668967 53.90157, -…
## 10 Incongru…  5.43     1 E020023… Leeds 003 <NA>       (((-1.703471 53.91359, -…
## # … with 12 more rows
```
…
